{
    "httpMethod": "GET",
    "resource": "/preference",
    "path": "/preference/user/{userId}/client/{clientCode}/category/{category}/item/{itemName}",
    "isBase64Encoded": false,
    "queryStringParameters": null,
    "pathParameters": {
      "userId": 1,
      "clientCode": "BI",
      "category": "Bills_Phone",
      "itemName": "TEXT_SETTINGS"
    }
}